﻿Tanggal,Kurs
26/07/2019,14001
25/07/2019,13986
24/07/2019,14011
23/07/2019,13973
22/07/2019,13963
19/07/2019,13913
18/07/2019,13976
17/07/2019,13949
16/07/2019,13925
15/07/2019,13970
12/07/2019,14085
11/07/2019,14089
10/07/2019,14152
9/07/2019,14129
8/07/2019,14147
5/07/2019,14148
4/07/2019,14106
3/07/2019,14160
2/07/2019,14140
1/07/2019,14117
28/06/2019,14141
27/06/2019,14180
26/06/2019,14174
25/06/2019,14138
24/06/2019,14165
21/06/2019,14116
20/06/2019,14236
19/06/2019,14271
18/06/2019,14334
17/06/2019,14346
14/06/2019,14304
13/06/2019,14270
12/06/2019,14234
11/06/2019,14258
10/06/2019,14231
